%YAML 1.1
%TAG !u! tag:unity3d.com,2011:
--- !u!114 &11400000
MonoBehaviour:
  m_ObjectHideFlags: 0
  m_CorrespondingSourceObject: {fileID: 0}
  m_PrefabInstance: {fileID: 0}
  m_PrefabAsset: {fileID: 0}
  m_GameObject: {fileID: 0}
  m_Enabled: 1
  m_EditorHideFlags: 0
  m_Script: {fileID: 11500000, guid: 14e9fe82a2bb74142b106718e126b84e, type: 3}
  m_Name: Perma Head Lock
  m_EditorClassIdentifier: 
  description: Prevents characters from looking around.
  duration: 1
  isFinite: 0
  activeElapsedTime: 0
